{
  "required": true,
  "minVersion": "0.8",
  "package": "net.sssubtlety.chicken_nerf.mixin",
  "compatibilityLevel": "JAVA_17",
  "mixins": [
    "AnimalEntityBreedMixin",
    "ChickenEntityNoRandomEggsMixin",
    "EggEntityChickenChanceMixin"
  ],
  "injectors": {
    "defaultRequire": 1
  }
}
